…
Get all available meta data on statistics, substatistics, and
parameters:

``` r
datenguideR::dg_descriptions
#> # A tibble: 3,419 x 7
#>    stat_name stat_description stat_descriptio… substat_name
#>    <chr>     <chr>            <chr>            <chr>       
#>  1 AENW01    Entsorgte/behan… "**Entsorgte/be… <NA>        
#>  2 AENW02    Abgelagerte Abf… "**Abgelagerte … <NA>        
#>  3 AENW03    Entsorg.u.Behan… "**Entsorg.u.Be… <NA>        
#>  4 AENW04    Entsorgte/behan… "**Entsorgte/be… <NA>        
#>  5 AENW05    Abgelagerte Abf… "**Abgelagerte … <NA>        
#>  6 AENW06    Entsorg.u.Behan… "**Entsorg.u.Be… <NA>        
#>  7 AEW001    Entsorgungs- un… "**Entsorgungs-… <NA>        
#>  8 AEW001    Entsorgungs- un… "**Entsorgungs-… EBANL1      
#>  9 AEW001    Entsorgungs- un… "**Entsorgungs-… EBANL1      
#> 10 AEW001    Entsorgungs- un… "**Entsorgungs-… EBANL1      
#> # … with 3,409 more rows, and 3 more variables: substat_description <chr>,
#> #   param_name <chr>, param_description <chr>
```
…
