dg_descriptions.R — get_descriptions • datenguideR
…
    get_descriptions.Rd

    Gets all available meta data on statistics, sub-statistics, and parameters.

get_descriptions()

    Value

    Data frame containing all available meta data

    Examples

dg_descriptions <- get_descriptions()
dg_descriptions
#> # A tibble: 475 x 3
#>    name   description                                               args        
#>    <chr>  <chr>                                                     <list>      
#>  1 id     Regionalschlüssel                                         <df[,0] [0 ~
#>  2 name   Name                                                      <df[,0] [0 ~
#>  3 AENW01 "**Entsorgte/behandelte Abfallmenge a.d. eig. BL**\n*aus~ <df[,2] [2 ~
#>  4 AENW02 "  **Abgelagerte Abfallmenge in Deponien**\n  *aus GENES~ <df[,2] [2 ~
#>  5 AENW03 "**Entsorg.u.Behandlungsanl.(o.Sortier.u.Zerlege.)**\n*a~ <df[,2] [2 ~
#>  6 AENW04 "**Entsorgte/behandelte Abfallmenge a.d. eig. BL**\n*aus~ <df[,2] [2 ~
#>  7 AENW05 "  **Abgelagerte Abfallmenge in Deponien**\n  *aus GENES~ <df[,2] [2 ~
#>  8 AENW06 "  **Entsorg.u.Behandlungsanl.(o.Sortier.u.Zerlege.)**\n~ <df[,2] [2 ~
#>  9 AEW001 "  **Entsorgungs- und Behandlungsanlagen**\n  *aus GENES~ <df[,2] [4 ~
#> 10 AEW002 "**Entsorgte/behandelte Abfallmenge**\n*aus GENESIS-Stat~ <df[,2] [2 ~
#> # ... with 465 more rows
…
